02:28:23.137: CPU Name: AMD Ryzen 5 2600 Six-Core Processor
02:28:23.137: CPU Speed: 1550.000MHz
02:28:23.138: Physical Cores: 6, Logical Cores: 12
02:28:23.138: Physical Memory: 24025MB Total, 11338MB Free
02:28:23.138: Kernel Version: Linux 5.16.15-arch1-1
02:28:23.138: Distribution: "Arch Linux" Unknown
02:28:23.138: Session Type: x11
02:28:23.138: Window System: X11.0, Vendor: The X.Org Foundation, Version: 1.21.1
02:28:23.139: Qt Version: 5.15.3 (runtime), 5.15.3 (compiled)
02:28:23.139: Portable mode: false
02:28:23.206: OBS 27.2.3-1 (linux)
02:28:23.206: ---------------------------------
02:28:23.206: ---------------------------------
02:28:23.206: audio settings reset:
02:28:23.206: 	samples per sec: 48000
02:28:23.206: 	speakers:        2
02:28:23.210: ---------------------------------
02:28:23.210: Initializing OpenGL...
02:28:23.280: Loading up OpenGL on adapter AMD AMD Radeon RX 580 Series (POLARIS10, DRM 3.44.0, 5.16.15-arch1-1, LLVM 13.0.1)
02:28:23.280: OpenGL loaded successfully, version 4.6 (Core Profile) Mesa 21.3.7, shading language 4.60
02:28:23.296: ---------------------------------
02:28:23.296: video settings reset:
02:28:23.296: 	base resolution:   1920x1080
02:28:23.296: 	output resolution: 1920x1080
02:28:23.296: 	downscale filter:  Bicubic
02:28:23.296: 	fps:               30/1
02:28:23.296: 	format:            NV12
02:28:23.296: 	YUV mode:          709/Partial
02:28:23.296: NV12 texture support not available
02:28:23.300: Audio monitoring device:
02:28:23.300: 	name: Default
02:28:23.300: 	id: default
02:28:23.300: ---------------------------------
02:28:23.303: Failed to load 'en-US' text for module: 'decklink-captions.so'
02:28:23.306: Failed to load 'en-US' text for module: 'decklink-ouput-ui.so'
02:28:23.314: Failed to load 'en-GB' text for module: 'frontend-tools.so'
02:28:23.396: Failed to load 'en-GB' text for module: 'linux-alsa.so'
02:28:23.398: Failed to load 'en-GB' text for module: 'linux-capture.so'
02:28:23.401: A DeckLink iterator could not be created.  The DeckLink drivers may not be installed
02:28:23.401: No blackmagic support
02:28:23.403: Failed to load 'en-GB' text for module: 'linux-jack.so'
02:28:23.404: Failed to load 'en-GB' text for module: 'linux-pulseaudio.so'
02:28:23.411: v4l2loopback not installed, virtual camera disabled
02:28:23.439: os_dlopen(libnvidia-encode.so.1->libnvidia-encode.so.1): libnvidia-encode.so.1: cannot open shared object file: No such file or directory
02:28:23.439: 
02:28:23.439: FFMPEG VAAPI supported
02:28:23.446: Failed to load 'en-GB' text for module: 'obs-libfdk.so'
02:28:23.462: Failed to load 'en-GB' text for module: 'obs-x264.so'
02:28:23.465: Failed to load 'en-GB' text for module: 'rtmp-services.so'
02:28:23.469: Failed to load 'en-GB' text for module: 'sndio.so'
02:28:23.472: ---------------------------------
02:28:23.472:   Loaded Modules:
02:28:23.472:     text-freetype2.so
02:28:23.472:     sndio.so
02:28:23.472:     rtmp-services.so
02:28:23.472:     obs-x264.so
02:28:23.472:     obs-transitions.so
02:28:23.472:     obs-outputs.so
02:28:23.472:     obs-libfdk.so
02:28:23.472:     obs-filters.so
02:28:23.472:     obs-ffmpeg.so
02:28:23.472:     linux-v4l2.so
02:28:23.472:     linux-pulseaudio.so
02:28:23.472:     linux-jack.so
02:28:23.472:     linux-decklink.so
02:28:23.472:     linux-capture.so
02:28:23.472:     linux-alsa.so
02:28:23.472:     image-source.so
02:28:23.472:     frontend-tools.so
02:28:23.472:     decklink-ouput-ui.so
02:28:23.472:     decklink-captions.so
02:28:23.472: ---------------------------------
02:28:23.472: ==== Startup complete ===============================================
02:28:23.502: All scene data cleared
02:28:23.502: ------------------------------------------------
02:28:23.506: pulse-input: Server name: 'pulseaudio 15.0'
02:28:23.506: pulse-input: Audio format: s16le, 44100 Hz, 2 channels
02:28:23.506: pulse-input: Started recording from 'alsa_output.pci-0000_2b_00.1.hdmi-stereo-extra3.monitor'
02:28:23.506: [Loaded global audio device]: 'Desktop Audio'
02:28:23.508: xshm-input: Geometry 1920x1080 @ 0,0
02:28:23.511: Switched to scene 'Scene'
02:28:23.511: ------------------------------------------------
02:28:23.511: Loaded scenes:
02:28:23.511: - scene 'Scene':
02:28:23.511:     - source: 'video' (xshm_input)
02:28:23.511: ------------------------------------------------
02:28:26.076: adding 42 milliseconds of audio buffering, total audio buffering is now 42 milliseconds (source: Desktop Audio)
02:28:26.076: 
