04:01:12.151: CPU Name: AMD Ryzen 5 2600 Six-Core Processor
04:01:12.151: CPU Speed: 2546.272MHz
04:01:12.151: Physical Cores: 6, Logical Cores: 12
04:01:12.151: Physical Memory: 24025MB Total, 21764MB Free
04:01:12.151: Kernel Version: Linux 5.16.13-arch1-1
04:01:12.151: Distribution: "Arch Linux" Unknown
04:01:12.151: Session Type: x11
04:01:12.151: Window System: X11.0, Vendor: The X.Org Foundation, Version: 1.21.1
04:01:12.152: Qt Version: 5.15.3 (runtime), 5.15.2 (compiled)
04:01:12.152: Portable mode: false
04:01:12.190: OBS 27.2.1-1 (linux)
04:01:12.191: ---------------------------------
04:01:12.191: ---------------------------------
04:01:12.191: audio settings reset:
04:01:12.191: 	samples per sec: 48000
04:01:12.191: 	speakers:        2
04:01:12.192: ---------------------------------
04:01:12.192: Initializing OpenGL...
04:01:12.258: Loading up OpenGL on adapter AMD AMD Radeon RX 580 Series (POLARIS10, DRM 3.44.0, 5.16.13-arch1-1, LLVM 13.0.1)
04:01:12.258: OpenGL loaded successfully, version 4.6 (Core Profile) Mesa 21.3.7, shading language 4.60
04:01:12.271: ---------------------------------
04:01:12.271: video settings reset:
04:01:12.271: 	base resolution:   1920x1080
04:01:12.271: 	output resolution: 1920x1080
04:01:12.271: 	downscale filter:  Bicubic
04:01:12.271: 	fps:               30/1
04:01:12.271: 	format:            NV12
04:01:12.271: 	YUV mode:          709/Partial
04:01:12.271: NV12 texture support not available
04:01:12.274: Audio monitoring device:
04:01:12.274: 	name: Default
04:01:12.274: 	id: default
04:01:12.275: ---------------------------------
04:01:12.276: Failed to load 'en-US' text for module: 'decklink-captions.so'
04:01:12.277: Failed to load 'en-US' text for module: 'decklink-ouput-ui.so'
04:01:12.279: Failed to load 'en-GB' text for module: 'frontend-tools.so'
04:01:12.342: Failed to load 'en-GB' text for module: 'linux-alsa.so'
04:01:12.343: Failed to load 'en-GB' text for module: 'linux-capture.so'
04:01:12.345: A DeckLink iterator could not be created.  The DeckLink drivers may not be installed
04:01:12.345: No blackmagic support
04:01:12.347: Failed to load 'en-GB' text for module: 'linux-jack.so'
04:01:12.348: Failed to load 'en-GB' text for module: 'linux-pulseaudio.so'
04:01:12.352: v4l2loopback not installed, virtual camera disabled
04:01:12.355: os_dlopen(libnvidia-encode.so.1->libnvidia-encode.so.1): libnvidia-encode.so.1: cannot open shared object file: No such file or directory
04:01:12.355: 
04:01:12.355: FFMPEG VAAPI supported
04:01:12.356: Failed to load 'en-GB' text for module: 'obs-libfdk.so'
04:01:12.358: Failed to load 'en-GB' text for module: 'obs-x264.so'
04:01:12.359: Failed to load 'en-GB' text for module: 'rtmp-services.so'
04:01:12.360: Failed to load 'en-GB' text for module: 'sndio.so'
04:01:12.361: ---------------------------------
04:01:12.361:   Loaded Modules:
04:01:12.361:     text-freetype2.so
04:01:12.361:     sndio.so
04:01:12.361:     rtmp-services.so
04:01:12.361:     obs-x264.so
04:01:12.361:     obs-transitions.so
04:01:12.361:     obs-outputs.so
04:01:12.361:     obs-libfdk.so
04:01:12.361:     obs-filters.so
04:01:12.361:     obs-ffmpeg.so
04:01:12.361:     linux-v4l2.so
04:01:12.361:     linux-pulseaudio.so
04:01:12.361:     linux-jack.so
04:01:12.361:     linux-decklink.so
04:01:12.361:     linux-capture.so
04:01:12.361:     linux-alsa.so
04:01:12.361:     image-source.so
04:01:12.361:     frontend-tools.so
04:01:12.361:     decklink-ouput-ui.so
04:01:12.361:     decklink-captions.so
04:01:12.361: ---------------------------------
04:01:12.361: ==== Startup complete ===============================================
04:01:12.381: All scene data cleared
04:01:12.381: ------------------------------------------------
04:01:12.382: pulse-input: Server name: 'pulseaudio 15.0'
04:01:12.382: pulse-input: Audio format: s16le, 44100 Hz, 2 channels
04:01:12.382: pulse-input: Started recording from 'alsa_output.pci-0000_2b_00.1.hdmi-stereo-extra3.monitor'
04:01:12.382: [Loaded global audio device]: 'Desktop Audio'
04:01:12.383: xshm-input: Geometry 1920x1080 @ 0,0
04:01:12.385: Switched to scene 'Scene'
04:01:12.386: ------------------------------------------------
04:01:12.386: Loaded scenes:
04:01:12.386: - scene 'Scene':
04:01:12.386:     - source: 'video' (xshm_input)
04:01:12.386: ------------------------------------------------
