17:09:27.539: CPU Name: AMD Ryzen 5 2600 Six-Core Processor
17:09:27.539: CPU Speed: 1550.000MHz
17:09:27.540: Physical Cores: 6, Logical Cores: 12
17:09:27.540: Physical Memory: 24025MB Total, 654MB Free
17:09:27.540: Kernel Version: Linux 5.16.13-arch1-1
17:09:27.540: Distribution: "Arch Linux" Unknown
17:09:27.540: Session Type: x11
17:09:27.540: Window System: X11.0, Vendor: The X.Org Foundation, Version: 1.21.1
17:09:27.541: Qt Version: 5.15.3 (runtime), 5.15.2 (compiled)
17:09:27.541: Portable mode: false
17:09:27.593: OBS 27.2.1-1 (linux)
17:09:27.593: ---------------------------------
17:09:27.593: ---------------------------------
17:09:27.593: audio settings reset:
17:09:27.593: 	samples per sec: 48000
17:09:27.593: 	speakers:        2
17:09:27.596: ---------------------------------
17:09:27.596: Initializing OpenGL...
17:09:27.670: Loading up OpenGL on adapter AMD AMD Radeon RX 580 Series (POLARIS10, DRM 3.44.0, 5.16.13-arch1-1, LLVM 13.0.1)
17:09:27.670: OpenGL loaded successfully, version 4.6 (Core Profile) Mesa 21.3.7, shading language 4.60
17:09:27.686: ---------------------------------
17:09:27.686: video settings reset:
17:09:27.686: 	base resolution:   1920x1080
17:09:27.686: 	output resolution: 1920x1080
17:09:27.686: 	downscale filter:  Bicubic
17:09:27.686: 	fps:               30/1
17:09:27.686: 	format:            NV12
17:09:27.686: 	YUV mode:          709/Partial
17:09:27.686: NV12 texture support not available
17:09:27.688: Audio monitoring device:
17:09:27.688: 	name: Default
17:09:27.688: 	id: default
17:09:27.688: ---------------------------------
17:09:27.689: Failed to load 'en-US' text for module: 'decklink-captions.so'
17:09:27.692: Failed to load 'en-US' text for module: 'decklink-ouput-ui.so'
17:09:27.699: Failed to load 'en-GB' text for module: 'frontend-tools.so'
17:09:27.801: Failed to load 'en-GB' text for module: 'linux-alsa.so'
17:09:27.806: Failed to load 'en-GB' text for module: 'linux-capture.so'
17:09:27.808: A DeckLink iterator could not be created.  The DeckLink drivers may not be installed
17:09:27.808: No blackmagic support
17:09:27.819: Failed to load 'en-GB' text for module: 'linux-jack.so'
17:09:27.820: Failed to load 'en-GB' text for module: 'linux-pulseaudio.so'
17:09:27.828: v4l2loopback not installed, virtual camera disabled
17:09:27.863: os_dlopen(libnvidia-encode.so.1->libnvidia-encode.so.1): libnvidia-encode.so.1: cannot open shared object file: No such file or directory
17:09:27.863: 
17:09:27.863: FFMPEG VAAPI supported
17:09:27.875: Failed to load 'en-GB' text for module: 'obs-libfdk.so'
17:09:27.885: Failed to load 'en-GB' text for module: 'obs-x264.so'
17:09:27.887: Failed to load 'en-GB' text for module: 'rtmp-services.so'
17:09:27.892: Failed to load 'en-GB' text for module: 'sndio.so'
17:09:27.893: ---------------------------------
17:09:27.893:   Loaded Modules:
17:09:27.893:     text-freetype2.so
17:09:27.893:     sndio.so
17:09:27.893:     rtmp-services.so
17:09:27.893:     obs-x264.so
17:09:27.893:     obs-transitions.so
17:09:27.893:     obs-outputs.so
17:09:27.893:     obs-libfdk.so
17:09:27.893:     obs-filters.so
17:09:27.893:     obs-ffmpeg.so
17:09:27.893:     linux-v4l2.so
17:09:27.893:     linux-pulseaudio.so
17:09:27.893:     linux-jack.so
17:09:27.893:     linux-decklink.so
17:09:27.893:     linux-capture.so
17:09:27.893:     linux-alsa.so
17:09:27.893:     image-source.so
17:09:27.893:     frontend-tools.so
17:09:27.893:     decklink-ouput-ui.so
17:09:27.893:     decklink-captions.so
17:09:27.893: ---------------------------------
17:09:27.893: ==== Startup complete ===============================================
17:09:27.930: All scene data cleared
17:09:27.930: ------------------------------------------------
17:09:27.933: pulse-input: Server name: 'pulseaudio 15.0'
17:09:27.933: pulse-input: Audio format: s16le, 48000 Hz, 2 channels
17:09:27.933: pulse-input: Started recording from 'alsa_output.pci-0000_2b_00.1.hdmi-stereo-extra3.monitor'
17:09:27.934: [Loaded global audio device]: 'Desktop Audio'
17:09:27.934: xshm-input: Geometry 1920x1080 @ 0,0
17:09:27.937: Switched to scene 'Scene'
17:09:27.937: ------------------------------------------------
17:09:27.937: Loaded scenes:
17:09:27.937: - scene 'Scene':
17:09:27.937:     - source: 'video' (xshm_input)
17:09:27.937: ------------------------------------------------
17:09:30.357: adding 42 milliseconds of audio buffering, total audio buffering is now 42 milliseconds (source: Desktop Audio)
17:09:30.357: 
