22:04:27.289: CPU Name: AMD Ryzen 5 2600 Six-Core Processor
22:04:27.289: CPU Speed: 4000.000MHz
22:04:27.290: Physical Cores: 6, Logical Cores: 12
22:04:27.290: Physical Memory: 24025MB Total, 20103MB Free
22:04:27.290: Kernel Version: Linux 5.16.15-arch1-1
22:04:27.290: Distribution: "Arch Linux" Unknown
22:04:27.290: Session Type: x11
22:04:27.290: Window System: X11.0, Vendor: The X.Org Foundation, Version: 1.21.1
22:04:27.291: Qt Version: 5.15.3 (runtime), 5.15.3 (compiled)
22:04:27.291: Portable mode: false
22:04:27.344: OBS 27.2.3-1 (linux)
22:04:27.344: ---------------------------------
22:04:27.344: ---------------------------------
22:04:27.344: audio settings reset:
22:04:27.344: 	samples per sec: 48000
22:04:27.344: 	speakers:        2
22:04:27.348: ---------------------------------
22:04:27.348: Initializing OpenGL...
22:04:27.417: Loading up OpenGL on adapter AMD AMD Radeon RX 580 Series (POLARIS10, DRM 3.44.0, 5.16.15-arch1-1, LLVM 13.0.1)
22:04:27.417: OpenGL loaded successfully, version 4.6 (Core Profile) Mesa 21.3.7, shading language 4.60
22:04:27.433: ---------------------------------
22:04:27.433: video settings reset:
22:04:27.433: 	base resolution:   1920x1080
22:04:27.433: 	output resolution: 1920x1080
22:04:27.433: 	downscale filter:  Bicubic
22:04:27.433: 	fps:               30/1
22:04:27.433: 	format:            NV12
22:04:27.433: 	YUV mode:          709/Partial
22:04:27.433: NV12 texture support not available
22:04:27.436: Audio monitoring device:
22:04:27.436: 	name: Default
22:04:27.436: 	id: default
22:04:27.436: ---------------------------------
22:04:27.438: Failed to load 'en-US' text for module: 'decklink-captions.so'
22:04:27.441: Failed to load 'en-US' text for module: 'decklink-ouput-ui.so'
22:04:27.449: Failed to load 'en-GB' text for module: 'frontend-tools.so'
22:04:27.532: Failed to load 'en-GB' text for module: 'linux-alsa.so'
22:04:27.535: Failed to load 'en-GB' text for module: 'linux-capture.so'
22:04:27.538: A DeckLink iterator could not be created.  The DeckLink drivers may not be installed
22:04:27.538: No blackmagic support
22:04:27.540: Failed to load 'en-GB' text for module: 'linux-jack.so'
22:04:27.542: Failed to load 'en-GB' text for module: 'linux-pulseaudio.so'
22:04:27.550: v4l2loopback not installed, virtual camera disabled
22:04:27.556: os_dlopen(libnvidia-encode.so.1->libnvidia-encode.so.1): libnvidia-encode.so.1: cannot open shared object file: No such file or directory
22:04:27.556: 
22:04:27.556: FFMPEG VAAPI supported
22:04:27.562: Failed to load 'en-GB' text for module: 'obs-libfdk.so'
22:04:27.572: Failed to load 'en-GB' text for module: 'obs-x264.so'
22:04:27.574: Failed to load 'en-GB' text for module: 'rtmp-services.so'
22:04:27.576: Failed to load 'en-GB' text for module: 'sndio.so'
22:04:27.578: ---------------------------------
22:04:27.578:   Loaded Modules:
22:04:27.578:     text-freetype2.so
22:04:27.578:     sndio.so
22:04:27.578:     rtmp-services.so
22:04:27.578:     obs-x264.so
22:04:27.578:     obs-transitions.so
22:04:27.578:     obs-outputs.so
22:04:27.578:     obs-libfdk.so
22:04:27.578:     obs-filters.so
22:04:27.578:     obs-ffmpeg.so
22:04:27.578:     linux-v4l2.so
22:04:27.578:     linux-pulseaudio.so
22:04:27.578:     linux-jack.so
22:04:27.578:     linux-decklink.so
22:04:27.578:     linux-capture.so
22:04:27.578:     linux-alsa.so
22:04:27.579:     image-source.so
22:04:27.579:     frontend-tools.so
22:04:27.579:     decklink-ouput-ui.so
22:04:27.579:     decklink-captions.so
22:04:27.579: ---------------------------------
22:04:27.579: ==== Startup complete ===============================================
22:04:27.619: All scene data cleared
22:04:27.619: ------------------------------------------------
22:04:27.621: pulse-input: Server name: 'pulseaudio 15.0'
22:04:27.621: pulse-input: Audio format: s16le, 48000 Hz, 2 channels
22:04:27.621: pulse-input: Started recording from 'alsa_output.pci-0000_2b_00.1.hdmi-stereo-extra3.monitor'
22:04:27.621: [Loaded global audio device]: 'Desktop Audio'
22:04:27.622: xshm-input: Geometry 1920x1080 @ 0,0
22:04:27.625: Switched to scene 'Scene'
22:04:27.625: ------------------------------------------------
22:04:27.625: Loaded scenes:
22:04:27.625: - scene 'Scene':
22:04:27.625:     - source: 'video' (xshm_input)
22:04:27.625: ------------------------------------------------
22:04:30.022: adding 42 milliseconds of audio buffering, total audio buffering is now 42 milliseconds (source: Desktop Audio)
22:04:30.022: 
22:08:07.481: ==== Recording Start ===============================================
23:32:16.259: Output 'adv_ffmpeg_output': stopping
23:32:16.259: Output 'adv_ffmpeg_output': Total frames output: 151462
23:32:16.259: Output 'adv_ffmpeg_output': Total drawn frames: 151465
23:32:16.259: ==== Recording Stop ================================================
23:49:48.779: ==== Shutting down ==================================================
23:49:48.787: pulse-input: Stopped recording from 'alsa_output.pci-0000_2b_00.1.hdmi-stereo-extra3.monitor'
23:49:48.787: pulse-input: Got 1434020 packets with 303317111 frames
23:49:48.812: All scene data cleared
23:49:48.812: ------------------------------------------------
23:49:48.927: [Scripting] Total detached callbacks: 0
23:49:48.927: Freeing OBS context data
23:49:48.939: == Profiler Results =============================
23:49:48.939: run_program_init: 577.634 ms
23:49:48.939:  ┣OBSApp::AppInit: 8.701 ms
23:49:48.939:  ┃ ┗OBSApp::InitLocale: 5.016 ms
23:49:48.939:  ┗OBSApp::OBSInit: 482.251 ms
23:49:48.939:    ┣obs_startup: 18.311 ms
23:49:48.939:    ┗OBSBasic::OBSInit: 410.165 ms
23:49:48.939:      ┣OBSBasic::InitBasicConfig: 0.064 ms
23:49:48.939:      ┣OBSBasic::ResetAudio: 0.095 ms
23:49:48.939:      ┣OBSBasic::ResetVideo: 91.424 ms
23:49:48.939:      ┣OBSBasic::InitOBSCallbacks: 0.004 ms
23:49:48.939:      ┣OBSBasic::InitHotkeys: 0.036 ms
23:49:48.940:      ┣obs_load_all_modules: 142.334 ms
23:49:48.940:      ┃ ┣obs_init_module(decklink-captions.so): 0.022 ms
23:49:48.940:      ┃ ┣obs_init_module(decklink-ouput-ui.so): 0.409 ms
23:49:48.940:      ┃ ┣obs_init_module(frontend-tools.so): 79.615 ms
23:49:48.940:      ┃ ┣obs_init_module(image-source.so): 0.004 ms
23:49:48.940:      ┃ ┣obs_init_module(linux-alsa.so): 0.001 ms
23:49:48.940:      ┃ ┣obs_init_module(linux-capture.so): 0.291 ms
23:49:48.940:      ┃ ┣obs_init_module(linux-decklink.so): 0.088 ms
23:49:48.940:      ┃ ┣obs_init_module(linux-jack.so): 0.001 ms
23:49:48.940:      ┃ ┣obs_init_module(linux-pulseaudio.so): 0.001 ms
23:49:48.940:      ┃ ┣obs_init_module(linux-v4l2.so): 6.256 ms
23:49:48.940:      ┃ ┣obs_init_module(obs-ffmpeg.so): 0.126 ms
23:49:48.940:      ┃ ┃ ┗nvenc_check: 0.068 ms
23:49:48.940:      ┃ ┣obs_init_module(obs-filters.so): 0.014 ms
23:49:48.940:      ┃ ┣obs_init_module(obs-libfdk.so): 0 ms
23:49:48.940:      ┃ ┣obs_init_module(obs-outputs.so): 0.001 ms
23:49:48.940:      ┃ ┣obs_init_module(obs-transitions.so): 0.004 ms
23:49:48.940:      ┃ ┣obs_init_module(obs-x264.so): 0 ms
23:49:48.940:      ┃ ┣obs_init_module(rtmp-services.so): 0.467 ms
23:49:48.940:      ┃ ┣obs_init_module(sndio.so): 0.001 ms
23:49:48.940:      ┃ ┗obs_init_module(text-freetype2.so): 0.013 ms
23:49:48.940:      ┣OBSBasic::ResetOutputs: 0.138 ms
23:49:48.940:      ┣OBSBasic::CreateHotkeys: 0.045 ms
23:49:48.940:      ┣OBSBasic::InitService: 2.177 ms
23:49:48.940:      ┣OBSBasic::InitPrimitives: 0.099 ms
23:49:48.940:      ┗OBSBasic::Load: 45.766 ms
23:49:48.940: obs_hotkey_thread(25 ms): min=0.041 ms, median=7.812 ms, max=14.229 ms, 99th percentile=8.697 ms, 100% below 25 ms
23:49:48.940: audio_thread(Audio): min=0 ms, median=0.569 ms, max=20.312 ms, 99th percentile=4.474 ms
23:49:48.940: obs_graphics_thread(33.3333 ms): min=0.107 ms, median=10.106 ms, max=41.28 ms, 99th percentile=11.266 ms, 99.9995% below 33.333 ms
23:49:48.940:  ┣tick_sources: min=0 ms, median=9.172 ms, max=36.376 ms, 99th percentile=9.903 ms
23:49:48.940:  ┣output_frame: min=0.08 ms, median=0.573 ms, max=8.16 ms, 99th percentile=0.943 ms
23:49:48.940:  ┃ ┣gs_context(video->graphics): min=0.079 ms, median=0.243 ms, max=6.04 ms, 99th percentile=0.446 ms
23:49:48.940:  ┃ ┃ ┣render_video: min=0.011 ms, median=0.128 ms, max=3.081 ms, 99th percentile=0.248 ms
23:49:48.940:  ┃ ┃ ┃ ┣render_main_texture: min=0.009 ms, median=0.093 ms, max=2.898 ms, 99th percentile=0.154 ms
23:49:48.940:  ┃ ┃ ┃ ┣render_convert_texture: min=0.019 ms, median=0.036 ms, max=2.743 ms, 99th percentile=0.068 ms, 0.79867 calls per parent call
23:49:48.940:  ┃ ┃ ┃ ┗stage_output_texture: min=0.008 ms, median=0.015 ms, max=0.232 ms, 99th percentile=0.028 ms, 0.79867 calls per parent call
23:49:48.940:  ┃ ┃ ┣gs_flush: min=0.002 ms, median=0.006 ms, max=0.171 ms, 99th percentile=0.013 ms
23:49:48.940:  ┃ ┃ ┗download_frame: min=0 ms, median=0.044 ms, max=0.612 ms, 99th percentile=0.083 ms, 0.79867 calls per parent call
23:49:48.940:  ┃ ┗output_video_data: min=0.264 ms, median=0.349 ms, max=7.769 ms, 99th percentile=0.531 ms, 0.798665 calls per parent call
23:49:48.940:  ┗render_displays: min=0.003 ms, median=0.336 ms, max=3.935 ms, 99th percentile=0.685 ms
23:49:48.940: video_thread(video): min=2.279 ms, median=4.393 ms, max=22.527 ms, 99th percentile=6.027 ms
23:49:48.940: =================================================
23:49:48.940: == Profiler Time Between Calls ==================
23:49:48.940: obs_hotkey_thread(25 ms): min=25.071 ms, median=32.88 ms, max=39.292 ms, 41.1938% within ±2% of 25 ms (0% lower, 58.8062% higher)
23:49:48.940: obs_graphics_thread(33.3333 ms): min=25.377 ms, median=33.333 ms, max=41.283 ms, 99.9979% within ±2% of 33.333 ms (0.00105461% lower, 0.00105461% higher)
23:49:48.940: =================================================
23:49:48.999: Number of memory leaks: 0
